{
  "app-id": "net.teuniz.edfbrowser",
  "runtime": "org.kde.Platform",
  "runtime-version": "5.11",
  "sdk": "org.kde.Sdk",
  "command": "net.teuniz.edfbrowser",
  "rename-desktop-file": "edfbrowser.desktop",
  "rename-appdata-file": "edfbrowser.appdata.xml",
  "rename-icon": "edf",
  "finish-args": [
    "--socket=wayland",
	"--socket=x11",
    "--filesystem=home",
	"--share=network"],	
    "modules": [	
		{
		"name": "edfbrowser",
		"buildsystem": "qmake",
		"config-opts": ["flatpak=true"],
		"sources": [
			{
			"type": "git",
			"url": "https://gitlab.com/Teuniz/EDFbrowser.git"
			}
		]
		}
    ]
}
